Comparative Connectomics of Public and In Progress Drosophila Datasets • coconatfly
…
da1ds %>% 
  group_by(type, dataset, side) %>% 
  summarise(weight=sum(weight), npre=n_distinct(pre_id), npost=n_distinct(post_id))
#> `summarise()` has grouped output by 'type', 'dataset'. You can override using
#> the `.groups` argument.
#> # A tibble: 381 × 6
#> # Groups:   type, dataset [291]
#>    type            dataset   side  weight  npre npost
#>    <chr>           <chr>     <chr>  <int> <int> <int>
#>  1 AL-AST1         flywire   L         31     5     1
#>  2 AL-AST1         flywire   R         18     3     1
#>  3 AL-AST1         hemibrain R         25     3     1
#>  4 APL             flywire   L         43     7     1
#>  5 APL             flywire   R         70     6     1
#>  6 APL             hemibrain R        113     6     1
#>  7 AVLP010         flywire   L         11     2     1
#>  8 AVLP010         flywire   R          5     1     1
#>  9 AVLP011,AVLP012 flywire   L         11     2     1
#> 10 AVLP011,AVLP012 flywire   R         27     3     1
#> # ℹ 371 more rows
…
da1ds.shared_types.wide <- da1ds %>% 
  filter(!(dataset=='hemibrain' & side=='L')) %>% # drop truncated hemibrain LHS 
  group_by(type) %>% 
  mutate(datasets_type=n_distinct(dataset)) %>% 
  filter(datasets_type>1) %>% 
  group_by(type, dataset, side) %>% 
  summarise(weight=sum(weight)) %>% 
  mutate(shortdataset=abbreviate_datasets(dataset)) %>% 
  tidyr::pivot_wider(id_cols = type, names_from = c(shortdataset,side), 
                     values_from = weight, values_fill = 0)
#> `summarise()` has grouped output by 'type', 'dataset'. You can override using
#> the `.groups` argument.
da1ds.shared_types.wide
#> # A tibble: 44 × 4
#> # Groups:   type [44]
#>    type      fw_L  fw_R  hb_R
#>    <chr>    <int> <int> <int>
#>  1 AL-AST1     31    18    25
#>  2 APL         43    70   113
#>  3 DA1_lPN     50    11    73
#>  4 DA1_vPN    250   254   333
#>  5 DL3_lPN      5     0     9
#>  6 DNb05        6     0     5
#>  7 KCg-m     3290  2575  3030
#>  8 LHAD1d2     72    43    15
#>  9 LHAD1g1     62    60    48
#> 10 LHAV2b11    44    77    29
#> # ℹ 34 more rows
…
