…
``` r
da1ds %>% 
  group_by(type, dataset, side) %>% 
  summarise(weight=sum(weight), npre=n_distinct(pre_id), npost=n_distinct(post_id))
#> `summarise()` has grouped output by 'type', 'dataset'. You can override using
#> the `.groups` argument.
#> # A tibble: 256 × 6
#> # Groups:   type, dataset [209]
#>    type            dataset   side  weight  npre npost
#>    <chr>           <chr>     <chr>  <int> <int> <int>
#>  1 AL-AST1         flywire   L         16     2     1
#>  2 AL-AST1         flywire   R         13     2     1
#>  3 AL-AST1         hemibrain R         25     3     1
#>  4 APL             flywire   L         28     4     1
#>  5 APL             flywire   R         70     6     1
#>  6 APL             hemibrain R        113     6     1
#>  7 AVLP010         flywire   L          6     1     1
#>  8 AVLP010         flywire   R         83     6     1
#>  9 AVLP011,AVLP012 flywire   L          6     1     1
#> 10 AVLP011,AVLP012 flywire   R         22     2     1
#> # ℹ 246 more rows
```
…
``` r
da1ds.shared_types.wide <- da1ds %>% 
  filter(!(dataset=='hemibrain' & side=='L')) %>% # drop truncated hemibrain LHS 
  group_by(type) %>% 
  mutate(datasets_type=n_distinct(dataset)) %>% 
  filter(datasets_type>1) %>% 
  group_by(type, dataset, side) %>% 
  summarise(weight=sum(weight)) %>% 
  mutate(shortdataset=abbreviate_datasets(dataset)) %>% 
  tidyr::pivot_wider(id_cols = type, names_from = c(shortdataset,side), 
                     values_from = weight, values_fill = 0)
#> `summarise()` has grouped output by 'type', 'dataset'. You can override using
#> the `.groups` argument.
da1ds.shared_types.wide
#> # A tibble: 38 × 4
#> # Groups:   type [38]
#>    type      fw_L  fw_R  hb_R
#>    <chr>    <int> <int> <int>
#>  1 AL-AST1     16    13    25
#>  2 APL         28    70   113
#>  3 DA1_lPN     45     6    73
#>  4 DA1_vPN    250   254   333
#>  5 DNb05        6     0     5
#>  6 KCg-m     3275  2545  3030
#>  7 LHAD1g1     62    60    48
#>  8 LHAV2a3     70   128   154
#>  9 LHAV2b11    44    77    29
#> 10 LHAV3k6     19    16     5
#> # ℹ 28 more rows
```
…
