3. Splitting AOTU063 cell type • coconatfly
…
Finding the partners that define the types

What might distinguish these two types? We can fetch, say, the input partners, and then look at how connection strength varies across the types.

To get started let’s redefine the type of our 6 query neurons based on the clustering. Then fetch the input partners and merge in the the AOTU063 type (i.e. AOTU063a or AOTU063b) as a new column called qtype

aotu63v2=aotu63 %>% 
  mutate(type=case_when(
    group_k2==1 ~ 'AOTU063a',
    group_k2==2 ~ 'AOTU063b'
  ))
aotu63in <- cf_partners(aotu63, partners = 'in', threshold = 10)
aotu63in
#> # A tibble: 625 × 8
#>     pre_id post_id weight side  type    dataset pre_key               post_key  
#>    <int64> <int64>  <int> <chr> <chr>   <chr>   <chr>                 <chr>     
#>  1    7e17    7e17    118 R     LT52    flywire fw:720575940640004174 fw:720575…
#>  2    7e17    7e17    109 R     LT52    flywire fw:720575940618982725 fw:720575…
#>  3    7e17    7e17    109 R     AOTU041 flywire fw:720575940627738640 fw:720575…
#>  4    7e17    7e17     96 L     LT52    flywire fw:720575940612465777 fw:720575…
#>  5    7e17    7e17     95 R     LT52    flywire fw:720575940612837811 fw:720575…
#>  6    7e17    7e17     90 L     AOTU042 flywire fw:720575940619453861 fw:720575…
#>  7    7e17    7e17     87 R     SIP034  flywire fw:720575940628728172 fw:720575…
#>  8    7e17    7e17     83 R     LT52    flywire fw:720575940626024336 fw:720575…
#>  9    7e17    7e17     83 R     AOTU041 flywire fw:720575940638668659 fw:720575…
#> 10    7e17    7e17     82 R     AOTU014 flywire fw:720575940620321158 fw:720575…
#> # ℹ 615 more rows

# note that AOTU063 neurons will be the postsynaptic partners in this dataframe
aotu63in <- aotu63in %>% 
  left_join(
    aotu63v2 %>% mutate(qtype=type) %>% select(qtype, key),
    by=c("post_key"='key'))
aotu63in %>% 
  select(weight, type, qtype)
#> # A tibble: 625 × 3
#>    weight type    qtype   
#>     <int> <chr>   <chr>   
#>  1    118 LT52    AOTU063b
#>  2    109 LT52    AOTU063b
#>  3    109 AOTU041 AOTU063a
#>  4     96 LT52    AOTU063b
#>  5     95 LT52    AOTU063b
#>  6     90 AOTU042 AOTU063a
#>  7     87 SIP034  AOTU063a
#>  8     83 LT52    AOTU063b
#>  9     83 AOTU041 AOTU063a
#> 10     82 AOTU014 AOTU063b
#> # ℹ 615 more rows
…
  mutate(dataset=abbreviate_datasets(dataset)) %>% 
  # FlyWire has e.g. LC10a LC10c annotated, but not hemibrain
  mutate(type=case_when(
    grepl("LC10", type) ~ "LC10",
    T ~ type
  )) %>% 
  group_by(qtype, dataset, type) %>% 
  summarise(weight=sum(weight)) %>% 
  arrange(desc(weight)) %>% 
  tidyr::pivot_wider(names_from = c(qtype, dataset), values_from = weight, values_fill = 0) %>% 
  # convert from raw to pct
  mutate(across(-type, ~round(100*.x/sum(.x))))
#> `summarise()` has grouped output by 'qtype', 'dataset'. You can override using
#> the `.groups` argument.
#> # A tibble: 46 × 5
#>    type    AOTU063a_fw AOTU063b_fw AOTU063a_hb AOTU063b_hb
#>    <chr>         <dbl>       <dbl>       <dbl>       <dbl>
#>  1 LC10             56          46          56          45
#>  2 LT52              7          31          11          26
#>  3 SIP034            7           0           5           0
#>  4 NA                6           2           0           0
#>  5 AOTU041           5           2           5           1
#>  6 AOTU042           4           3           3           2
#>  7 AOTU014           0           5           0           5
#>  8 VES041            3           0           3           0
#>  9 AOTU065           2           2           2           2
#> 10 AOTU028           2           0           2           0
#> # ℹ 36 more rows
…
  mutate(dataset=abbreviate_datasets(dataset)) %>% 
  # FlyWire has e.g. LC10a LC10c annotated, but not hemibrain
  mutate(type=case_when(
    grepl("LC10", type) ~ "LC10",
    T ~ type
  )) %>% 
  group_by(qtype, dataset, type) %>% 
  summarise(weight=sum(weight)) %>% 
  arrange(desc(weight)) %>% 
  tidyr::pivot_wider(names_from = c(qtype, dataset), values_from = weight, values_fill = 0) %>% 
  # convert from raw to pct
  mutate(across(-type, ~round(100*.x/sum(.x))))
#> `summarise()` has grouped output by 'qtype', 'dataset'. You can override using
#> the `.groups` argument.
#> # A tibble: 70 × 5
#>    type    AOTU063a_fw AOTU063b_fw AOTU063a_hb AOTU063b_hb
#>    <chr>         <dbl>       <dbl>       <dbl>       <dbl>
#>  1 IB008            15          11          14           9
#>  2 DNa10            12          11           9           7
#>  3 IB010            11           5           8           5
#>  4 DNde002           3           9           0           0
#>  5 AOTU007           8           7           6           8
#>  6 VES064            7           4           5           4
#>  7 DNae011           7           3           0           0
#>  8 DNbe004           6           0           0           0
#>  9 NA                5           2           0           0
#> 10 AOTU024           1           6           1           2
#> # ℹ 60 more rows
…
