…
To get started let’s redefine the type of our 6 query neurons based on
the clustering. Then fetch the input partners and merge in the the
AOTU063 type (i.e. AOTU063a or AOTU063b) as a new column called `qtype`

``` r
aotu63v2=aotu63 %>% 
  mutate(type=case_when(
    group_k2==1 ~ 'AOTU063a',
    group_k2==2 ~ 'AOTU063b'
  ))
aotu63in <- cf_partners(aotu63, partners = 'in', threshold = 10)
aotu63in
#> # A tibble: 657 × 16
#>     pre_id post_id weight dataset tissue sex   pre_key      post_key side  class
#>    <int64> <int64>  <int> <chr>   <chr>  <chr> <chr>        <chr>    <chr> <chr>
#>  1    7e17    7e17    118 flywire brain  F     fw:72057594… fw:7205… R     visu…
#>  2    7e17    7e17    109 flywire brain  F     fw:72057594… fw:7205… R     visu…
#>  3    7e17    7e17    109 flywire brain  F     fw:72057594… fw:7205… R     cent…
#>  4    7e17    7e17     96 flywire brain  F     fw:72057594… fw:7205… L     visu…
#>  5    7e17    7e17     95 flywire brain  F     fw:72057594… fw:7205… R     visu…
#>  6    7e17    7e17     90 flywire brain  F     fw:72057594… fw:7205… L     cent…
#>  7    7e17    7e17     87 flywire brain  F     fw:72057594… fw:7205… R     cent…
#>  8    7e17    7e17     83 flywire brain  F     fw:72057594… fw:7205… R     visu…
#>  9    7e17    7e17     83 flywire brain  F     fw:72057594… fw:7205… R     cent…
#> 10    7e17    7e17     82 flywire brain  F     fw:72057594… fw:7205… R     cent…
#> # ℹ 647 more rows
#> # ℹ 6 more variables: subclass <chr>, subsubclass <chr>, type <chr>,
#> #   lineage <chr>, group <chr>, instance <chr>
```

``` r
# note that AOTU063 neurons will be the postsynaptic partners in this dataframe
aotu63in <- aotu63in %>% 
  left_join(
    aotu63v2 %>% mutate(qtype=type) %>% select(qtype, key),
    by=c("post_key"='key'))
aotu63in %>% 
  select(weight, type, qtype)
#> # A tibble: 657 × 3
#>    weight type    qtype   
#>     <int> <chr>   <chr>   
#>  1    118 LT52    AOTU063b
#>  2    109 LT52    AOTU063b
#>  3    109 AOTU041 AOTU063a
#>  4     96 LT52    AOTU063b
#>  5     95 LT52    AOTU063b
#>  6     90 AOTU042 AOTU063a
#>  7     87 SIP034  AOTU063a
#>  8     83 LT52    AOTU063b
#>  9     83 AOTU041 AOTU063a
#> 10     82 AOTU014 AOTU063b
#> # ℹ 647 more rows
```
…
  arrange(desc(weight)) %>% 
  # make four columns, one for each query type / dataset combination 
  tidyr::pivot_wider(
    names_from = c(qtype, dataset), 
    values_from = weight, 
    values_fill = 0) %>% 
  # convert from synaptic counts to percentages of total input
  mutate(across(-type, ~round(100*.x/sum(.x))))
#> `summarise()` has regrouped the output.
#> ℹ Summaries were computed grouped by qtype, dataset, and type.
#> ℹ Output is grouped by qtype and dataset.
#> ℹ Use `summarise(.groups = "drop_last")` to silence this message.
#> ℹ Use `summarise(.by = c(qtype, dataset, type))` for per-operation grouping
#>   (`?dplyr::dplyr_by`) instead.
#> # A tibble: 43 × 5
#>    type    AOTU063a_fw AOTU063b_fw AOTU063a_hb AOTU063b_hb
#>    <chr>         <dbl>       <dbl>       <dbl>       <dbl>
#>  1 LC10             56          48          56          45
#>  2 LT52              7          30          11          26
#>  3 SIP034            7           0           5           0
#>  4 NA                6           3           1           6
#>  5 AOTU041           5           2           5           1
#>  6 AOTU042           4           3           3           2
#>  7 AOTU014           0           5           0           5
#>  8 VES041            3           0           3           0
#>  9 AOTU065           2           1           2           2
#> 10 AOTU028           2           0           2           0
#> # ℹ 33 more rows
```
…
    T ~ type
  )) %>% 
  group_by(qtype, dataset, type) %>% 
  summarise(weight=sum(weight)) %>% 
  arrange(desc(weight)) %>% 
  tidyr::pivot_wider(names_from = c(qtype, dataset), values_from = weight, values_fill = 0) %>% 
  # convert from raw to pct
  mutate(across(-type, ~round(100*.x/sum(.x))))
#> `summarise()` has regrouped the output.
#> ℹ Summaries were computed grouped by qtype, dataset, and type.
#> ℹ Output is grouped by qtype and dataset.
#> ℹ Use `summarise(.groups = "drop_last")` to silence this message.
#> ℹ Use `summarise(.by = c(qtype, dataset, type))` for per-operation grouping
#>   (`?dplyr::dplyr_by`) instead.
#> # A tibble: 57 × 5
#>    type    AOTU063a_fw AOTU063a_hb AOTU063b_fw AOTU063b_hb
#>    <chr>         <dbl>       <dbl>       <dbl>       <dbl>
#>  1 IB008            15          14          11           9
#>  2 NA                5          22           0           7
#>  3 DNa10            12           9          11           7
#>  4 IB010            11           8           5           5
#>  5 AOTU007           8           6           7           8
#>  6 DNde002           3           0           9           0
#>  7 VES064            7           5           4           4
#>  8 DNae011           7           0           3           0
#>  9 DNbe004           6           0           0           0
#> 10 AOTU024           1           1           6           2
#> # ℹ 47 more rows
```
…
